Library/Bee/artifacts/mvdfrm/UnityEditor.UI.ref.dll_452FB8EBD860BCAB.mvfrm
Library/Bee/artifacts/mvdfrm/UnityEngine.UI.ref.dll_01958F46DE82E516.mvfrm
Library/Bee/artifacts/mvdfrm/UnityEditor.Graphs.dll_65C17DC3AB7F7D82.mvfrm
Library/Bee/artifacts/mvdfrm/UnityEditor.CoreModule.dll_42AE1F24646C4350.mvfrm
Library/Bee/artifacts/mvdfrm/UnityEditor.DeviceSimulatorModule.dll_29390BD5DEB99B71.mvfrm
Library/Bee/artifacts/mvdfrm/UnityEditor.DiagnosticsModule.dll_937806F8C070097F.mvfrm
Library/Bee/artifacts/mvdfrm/UnityEditor.EditorToolbarModule.dll_2C2FB26AF68D4521.mvfrm
Library/Bee/artifacts/mvdfrm/UnityEditor.GraphViewModule.dll_07D71DB7D5007376.mvfrm
Library/Bee/artifacts/mvdfrm/UnityEditor.PresetsUIModule.dll_C33D5699D758CB7B.mvfrm
Library/Bee/artifacts/mvdfrm/UnityEditor.QuickSearchModule.dll_1E878806194705D8.mvfrm
Library/Bee/artifacts/mvdfrm/UnityEditor.SceneTemplateModule.dll_4FCF2328F579EF59.mvfrm
Library/Bee/artifacts/mvdfrm/UnityEditor.SceneViewModule.dll_468700BFCA234084.mvfrm
Library/Bee/artifacts/mvdfrm/UnityEditor.TextCoreFontEngineModule.dll_3A919EE360AC9ACE.mvfrm
Library/Bee/artifacts/mvdfrm/UnityEditor.TextCoreTextEngineModule.dll_8279D554F03053EC.mvfrm
Library/Bee/artifacts/mvdfrm/UnityEditor.UIBuilderModule.dll_5C5FCAD447B8ECAA.mvfrm
Library/Bee/artifacts/mvdfrm/UnityEditor.UIElementsModule.dll_0D66B3E46A1DF08C.mvfrm
Library/Bee/artifacts/mvdfrm/UnityEditor.UIElementsSamplesModule.dll_A0EB7C2C6455FDA1.mvfrm
Library/Bee/artifacts/mvdfrm/UnityEditor.UnityConnectModule.dll_D68F67F641029A06.mvfrm
Library/Bee/artifacts/mvdfrm/UnityEditor.dll_3ED566A228070545.mvfrm
Library/Bee/artifacts/mvdfrm/UnityEngine.AIModule.dll_9FD86C1459FEC7A4.mvfrm
Library/Bee/artifacts/mvdfrm/UnityEngine.AccessibilityModule.dll_82748EBFF5F016F6.mvfrm
Library/Bee/artifacts/mvdfrm/UnityEngine.AndroidJNIModule.dll_8BAF9CB7B33D5F62.mvfrm
Library/Bee/artifacts/mvdfrm/UnityEngine.AnimationModule.dll_D65C99E0AF5D481C.mvfrm
Library/Bee/artifacts/mvdfrm/UnityEngine.AssetBundleModule.dll_6270BAF77BADBACA.mvfrm
Library/Bee/artifacts/mvdfrm/UnityEngine.AudioModule.dll_34996881ED8D420E.mvfrm
Library/Bee/artifacts/mvdfrm/UnityEngine.ClothModule.dll_9B81C57CC7AA20F2.mvfrm
Library/Bee/artifacts/mvdfrm/UnityEngine.ClusterInputModule.dll_562BDD0BF28A6CCC.mvfrm
Library/Bee/artifacts/mvdfrm/UnityEngine.ClusterRendererModule.dll_2EE5CE474E74A8F5.mvfrm
Library/Bee/artifacts/mvdfrm/UnityEngine.ContentLoadModule.dll_FB8714384A3062B7.mvfrm
Library/Bee/artifacts/mvdfrm/UnityEngine.CoreModule.dll_65CEF2770C71AE7B.mvfrm
Library/Bee/artifacts/mvdfrm/UnityEngine.CrashReportingModule.dll_4084DA0250569CF3.mvfrm
Library/Bee/artifacts/mvdfrm/UnityEngine.DSPGraphModule.dll_8049E1FBFA311479.mvfrm
Library/Bee/artifacts/mvdfrm/UnityEngine.DirectorModule.dll_7AF8809287D04358.mvfrm
Library/Bee/artifacts/mvdfrm/UnityEngine.GIModule.dll_3814B521F5ADAFBE.mvfrm
Library/Bee/artifacts/mvdfrm/UnityEngine.GameCenterModule.dll_B5FCE6D2797E5053.mvfrm
Library/Bee/artifacts/mvdfrm/UnityEngine.GridModule.dll_43400E6524C64472.mvfrm
Library/Bee/artifacts/mvdfrm/UnityEngine.HotReloadModule.dll_57A557E68A90639E.mvfrm
Library/Bee/artifacts/mvdfrm/UnityEngine.IMGUIModule.dll_6CF907E8B3BED5EF.mvfrm
Library/Bee/artifacts/mvdfrm/UnityEngine.ImageConversionModule.dll_9AD7CBF7D09960E9.mvfrm
Library/Bee/artifacts/mvdfrm/UnityEngine.InputLegacyModule.dll_F3B5D616139F70BB.mvfrm
Library/Bee/artifacts/mvdfrm/UnityEngine.InputModule.dll_9B0F303263C566B2.mvfrm
Library/Bee/artifacts/mvdfrm/UnityEngine.JSONSerializeModule.dll_E28C17FBF52B7780.mvfrm
Library/Bee/artifacts/mvdfrm/UnityEngine.LocalizationModule.dll_9478A75E8A065FC5.mvfrm
Library/Bee/artifacts/mvdfrm/UnityEngine.ParticleSystemModule.dll_9397234EBE682881.mvfrm
Library/Bee/artifacts/mvdfrm/UnityEngine.PerformanceReportingModule.dll_B0D73BA10A907E3A.mvfrm
Library/Bee/artifacts/mvdfrm/UnityEngine.Physics2DModule.dll_230289D1505A3FB1.mvfrm
Library/Bee/artifacts/mvdfrm/UnityEngine.PhysicsModule.dll_C1E5A40C3555DA9F.mvfrm
Library/Bee/artifacts/mvdfrm/UnityEngine.ProfilerModule.dll_AD3EB9C92129CA65.mvfrm
Library/Bee/artifacts/mvdfrm/UnityEngine.PropertiesModule.dll_E3382610EC69B48F.mvfrm
Library/Bee/artifacts/mvdfrm/UnityEngine.RuntimeInitializeOnLoadManagerInitializerModule.dll_FA4DA3752114927A.mvfrm
Library/Bee/artifacts/mvdfrm/UnityEngine.ScreenCaptureModule.dll_FC73C5810997A3E2.mvfrm
Library/Bee/artifacts/mvdfrm/UnityEngine.SharedInternalsModule.dll_1EE90ACD47C75C39.mvfrm
Library/Bee/artifacts/mvdfrm/UnityEngine.SpriteMaskModule.dll_9F2959629AEDE5CD.mvfrm
Library/Bee/artifacts/mvdfrm/UnityEngine.SpriteShapeModule.dll_7BD1E852314FF2D4.mvfrm
Library/Bee/artifacts/mvdfrm/UnityEngine.StreamingModule.dll_8AF18730FEE4FF5A.mvfrm
Library/Bee/artifacts/mvdfrm/UnityEngine.SubstanceModule.dll_679C9B7A4A37FD68.mvfrm
Library/Bee/artifacts/mvdfrm/UnityEngine.SubsystemsModule.dll_09D6BFC46935CDE0.mvfrm
Library/Bee/artifacts/mvdfrm/UnityEngine.TLSModule.dll_F8B096EF7765EBB3.mvfrm
Library/Bee/artifacts/mvdfrm/UnityEngine.TerrainModule.dll_DC2C1F7B0B14238D.mvfrm
Library/Bee/artifacts/mvdfrm/UnityEngine.TerrainPhysicsModule.dll_9411CC21D7AB230E.mvfrm
Library/Bee/artifacts/mvdfrm/UnityEngine.TextCoreFontEngineModule.dll_B8F11A3673AA5999.mvfrm
Library/Bee/artifacts/mvdfrm/UnityEngine.TextCoreTextEngineModule.dll_00D950A8032E12B7.mvfrm
Library/Bee/artifacts/mvdfrm/UnityEngine.TextRenderingModule.dll_25B3378BC0CF23D7.mvfrm
Library/Bee/artifacts/mvdfrm/UnityEngine.TilemapModule.dll_7B2886FC22D10496.mvfrm
Library/Bee/artifacts/mvdfrm/UnityEngine.UIElementsModule.dll_0E15212C6C6209D7.mvfrm
Library/Bee/artifacts/mvdfrm/UnityEngine.UIModule.dll_9B4C0A41B645CD50.mvfrm
Library/Bee/artifacts/mvdfrm/UnityEngine.UmbraModule.dll_AF6E149A7AB3ED81.mvfrm
Library/Bee/artifacts/mvdfrm/UnityEngine.UnityAnalyticsCommonModule.dll_4C15F8E524791C98.mvfrm
Library/Bee/artifacts/mvdfrm/UnityEngine.UnityAnalyticsModule.dll_B33694186A8F7A7D.mvfrm
Library/Bee/artifacts/mvdfrm/UnityEngine.UnityConnectModule.dll_C3EEEC053B8A9AB1.mvfrm
Library/Bee/artifacts/mvdfrm/UnityEngine.UnityCurlModule.dll_09793B121F713A09.mvfrm
Library/Bee/artifacts/mvdfrm/UnityEngine.UnityTestProtocolModule.dll_5CAE321EBE5152F7.mvfrm
Library/Bee/artifacts/mvdfrm/UnityEngine.UnityWebRequestAssetBundleModule.dll_BAB8657B8E47B30E.mvfrm
Library/Bee/artifacts/mvdfrm/UnityEngine.UnityWebRequestAudioModule.dll_28D38F7F90FB48D2.mvfrm
Library/Bee/artifacts/mvdfrm/UnityEngine.UnityWebRequestModule.dll_AC76D3A1DB8DFB68.mvfrm
Library/Bee/artifacts/mvdfrm/UnityEngine.UnityWebRequestTextureModule.dll_72CFD8BD7D7D0CE7.mvfrm
Library/Bee/artifacts/mvdfrm/UnityEngine.UnityWebRequestWWWModule.dll_CB9B9603F2EDCF23.mvfrm
Library/Bee/artifacts/mvdfrm/UnityEngine.VFXModule.dll_798F2F5E4DD35520.mvfrm
Library/Bee/artifacts/mvdfrm/UnityEngine.VRModule.dll_EE1E30C7580052C8.mvfrm
Library/Bee/artifacts/mvdfrm/UnityEngine.VehiclesModule.dll_F2BB7A1201FA12F3.mvfrm
Library/Bee/artifacts/mvdfrm/UnityEngine.VideoModule.dll_59A2ECECB01F5DB3.mvfrm
Library/Bee/artifacts/mvdfrm/UnityEngine.VirtualTexturingModule.dll_E6EE357F89A25D59.mvfrm
Library/Bee/artifacts/mvdfrm/UnityEngine.WindModule.dll_DC1DCD9F9DA82CE4.mvfrm
Library/Bee/artifacts/mvdfrm/UnityEngine.XRModule.dll_20DCF3CBE13AA026.mvfrm
Library/Bee/artifacts/mvdfrm/UnityEngine.dll_7179AD7A867A922A.mvfrm
Library/Bee/artifacts/mvdfrm/UnityEditor.LinuxStandalone.Extensions.dll_E5D61A2956662880.mvfrm
Library/Bee/artifacts/mvdfrm/UnityEditor.WebGL.Extensions.dll_F7B09F66FF6F7860.mvfrm
Library/Bee/artifacts/mvdfrm/Unity.Plastic.Antlr3.Runtime.dll_DBC5D081C4D6AF26.mvfrm
Library/Bee/artifacts/mvdfrm/Unity.Plastic.Newtonsoft.Json.dll_B06B77423C8110AF.mvfrm
Library/Bee/artifacts/mvdfrm/Unity.VisualScripting.IonicZip.dll_BE5647D59BA90757.mvfrm
Library/Bee/artifacts/mvdfrm/Unity.VisualScripting.YamlDotNet.dll_73B4528AAC4BDD55.mvfrm
Library/Bee/artifacts/mvdfrm/Unity.VisualScripting.TextureAssets.dll_0AD27BDE6D193B4D.mvfrm
Library/Bee/artifacts/mvdfrm/Unity.VisualScripting.Antlr3.Runtime.dll_2521796BDD14ED74.mvfrm